{
	"process_id" : 11981,
	"version" : "2019.4.17f1",
	"app_path" : "/Applications/Unity/Hub/Editor/2019.4.17f1/Unity.app",
	"app_contents_path" : "/Applications/Unity/Hub/Editor/2019.4.17f1/Unity.app/Contents"
}